﻿<?xml version="1.0" encoding="UTF-8"?>
<TestRun id="222f230f-d3b5-428a-a8c0-5b11736817ee" name="devopsadmin@DevopsUI 2017-09-04 13:19:45" runUser="DevopsUI\devopsadmin" xmlns="http://microsoft.com/schemas/VisualStudio/TeamTest/2010">
  <TestSettings name="Default Test Settings" id="29e623f2-764d-40af-a7cf-801f1091c2f3">
    <Execution>
      <TestTypeSpecific />
      <AgentRule name="Execution Agents">
      </AgentRule>
    </Execution>
    <Deployment runDeploymentRoot="devopsadmin_DevopsUI 2017-09-04 13_19_45" />
    <Properties />
  </TestSettings>
  <Times creation="2017-09-04T13:19:45.5439051+00:00" queuing="2017-09-04T13:19:46.0078818+00:00" start="2017-09-04T13:19:46.1428753+00:00" finish="2017-09-04T13:20:09.4793102+00:00" />
  <ResultSummary outcome="Completed">
    <Counters total="1" executed="1" passed="1" error="0" failed="0" timeout="0" aborted="0" inconclusive="0" passedButRunAborted="0" notRunnable="0" notExecuted="0" disconnected="0" warning="0" completed="0" inProgress="0" pending="0" />
  </ResultSummary>
  <TestDefinitions>
    <UnitTest name="CodedUITestMethod1" storage="codeduitestproject2.dll" id="893e51f9-d8eb-1c15-2ce4-3fccdd36113a">
      <Execution id="f616dd3c-4935-4e01-8081-c566608ee002" />
      <TestMethod codeBase="D:/MVC Unittest Sample/WebApplication1/CodedUITestProject2/bin/Debug/CodedUITestProject2.dll" adapterTypeName="Microsoft.VisualStudio.TestTools.TestTypes.Unit.UnitTestAdapter, Microsoft.VisualStudio.QualityTools.Tips.UnitTest.Adapter, Version=15.0.0.0, Culture=neutral, PublicKeyToken=b03f5f7f11d50a3a" className="CodedUITestProject2.CodedUITest1, CodedUITestProject2, Version=1.0.0.0, Culture=neutral, PublicKeyToken=null" name="CodedUITestMethod1" />
      <Extension>Microsoft.VisualStudio.TestTools.UITesting.CodedUITestAttribute, Microsoft.VisualStudio.QualityTools.CodedUITestFramework, Version=15.0.0.0, Culture=neutral, PublicKeyToken=b03f5f7f11d50a3a</Extension>
    </UnitTest>
  </TestDefinitions>
  <TestLists>
    <TestList name="Results Not in a List" id="8c84fa94-04c1-424b-9868-57a2d4851a1d" />
    <TestList name="All Loaded Results" id="19431567-8539-422a-85d7-44ee4e166bda" />
  </TestLists>
  <TestEntries>
    <TestEntry testId="893e51f9-d8eb-1c15-2ce4-3fccdd36113a" executionId="f616dd3c-4935-4e01-8081-c566608ee002" testListId="8c84fa94-04c1-424b-9868-57a2d4851a1d" />
  </TestEntries>
  <Results>
    <UnitTestResult executionId="f616dd3c-4935-4e01-8081-c566608ee002" testId="893e51f9-d8eb-1c15-2ce4-3fccdd36113a" testName="CodedUITestMethod1" computerName="DevopsUI" duration="00:00:21.5472387" startTime="2017-09-04T13:19:46.2218702+00:00" endTime="2017-09-04T13:20:08.4869394+00:00" testType="13cdc9d9-ddb5-4fa4-a97d-d965ccfc6d4b" outcome="Passed" testListId="8c84fa94-04c1-424b-9868-57a2d4851a1d" relativeResultsDirectory="f616dd3c-4935-4e01-8081-c566608ee002">
    </UnitTestResult>
  </Results>
</TestRun>