﻿<?xml version="1.0" encoding="UTF-8"?>
<TestRun id="d74e94ed-c0b3-42dd-83e1-a39303006228" name="devopsadmin@DevopsUI 2017-09-04 09:29:14" runUser="DevopsUI\devopsadmin" xmlns="http://microsoft.com/schemas/VisualStudio/TeamTest/2010">
  <TestSettings name="Default Test Settings" id="3a32bd5f-96a4-4fa9-922f-c8ad8a0863a7">
    <Execution>
      <TestTypeSpecific />
      <AgentRule name="Execution Agents">
      </AgentRule>
    </Execution>
    <Deployment runDeploymentRoot="devopsadmin_DevopsUI 2017-09-04 09_29_14" />
    <Properties />
  </TestSettings>
  <Times creation="2017-09-04T09:29:14.4538940+00:00" queuing="2017-09-04T09:29:14.8638794+00:00" start="2017-09-04T09:29:14.9458788+00:00" finish="2017-09-04T09:29:15.5268631+00:00" />
  <ResultSummary outcome="Warning">
    <Counters total="3" executed="3" passed="3" error="0" failed="0" timeout="0" aborted="0" inconclusive="0" passedButRunAborted="0" notRunnable="0" notExecuted="0" disconnected="0" warning="0" completed="0" inProgress="0" pending="0" />
    <RunInfos>
      <RunInfo computerName="DevopsUI" outcome="Warning" timestamp="2017-09-04T09:29:14.7218845+00:00">
        <Text>Warning: Test Run deployment issue: The assembly or module 'WebGrease' directly or indirectly referenced by the test container 'D:\MVC Unittest Sample\WebApplication1\WebApplication1.Tests\bin\Debug\webapplication1.tests.dll' was not found.</Text>
      </RunInfo>
    </RunInfos>
  </ResultSummary>
  <TestDefinitions>
    <UnitTest name="Index" storage="webapplication1.tests.dll" id="363c4455-5870-9ca4-476e-03e67a440aec">
      <Execution id="1275d364-8a9e-4269-80bb-ebce4fc72c5e" />
      <TestMethod codeBase="D:/MVC Unittest Sample/WebApplication1/WebApplication1.Tests/bin/Debug/WebApplication1.Tests.dll" adapterTypeName="Microsoft.VisualStudio.TestTools.TestTypes.Unit.UnitTestAdapter, Microsoft.VisualStudio.QualityTools.Tips.UnitTest.Adapter, Version=15.0.0.0, Culture=neutral, PublicKeyToken=b03f5f7f11d50a3a" className="WebApplication1.Tests.Controllers.HomeControllerTest, WebApplication1.Tests, Version=1.0.0.0, Culture=neutral, PublicKeyToken=null" name="Index" />
    </UnitTest>
    <UnitTest name="About" storage="webapplication1.tests.dll" id="fe95c093-8aaa-2a15-9736-2509cc8c0989">
      <Execution id="29f3db14-2015-4459-9262-8f46c0ff48a1" />
      <TestMethod codeBase="D:/MVC Unittest Sample/WebApplication1/WebApplication1.Tests/bin/Debug/WebApplication1.Tests.dll" adapterTypeName="Microsoft.VisualStudio.TestTools.TestTypes.Unit.UnitTestAdapter, Microsoft.VisualStudio.QualityTools.Tips.UnitTest.Adapter, Version=15.0.0.0, Culture=neutral, PublicKeyToken=b03f5f7f11d50a3a" className="WebApplication1.Tests.Controllers.HomeControllerTest, WebApplication1.Tests, Version=1.0.0.0, Culture=neutral, PublicKeyToken=null" name="About" />
    </UnitTest>
    <UnitTest name="Contact" storage="webapplication1.tests.dll" id="df764f6f-cbb6-8927-bfaa-71ca9ebb390d">
      <Execution id="c41d175f-a5c6-4d2c-908d-ed66a19fca85" />
      <TestMethod codeBase="D:/MVC Unittest Sample/WebApplication1/WebApplication1.Tests/bin/Debug/WebApplication1.Tests.dll" adapterTypeName="Microsoft.VisualStudio.TestTools.TestTypes.Unit.UnitTestAdapter, Microsoft.VisualStudio.QualityTools.Tips.UnitTest.Adapter, Version=15.0.0.0, Culture=neutral, PublicKeyToken=b03f5f7f11d50a3a" className="WebApplication1.Tests.Controllers.HomeControllerTest, WebApplication1.Tests, Version=1.0.0.0, Culture=neutral, PublicKeyToken=null" name="Contact" />
    </UnitTest>
  </TestDefinitions>
  <TestLists>
    <TestList name="Results Not in a List" id="8c84fa94-04c1-424b-9868-57a2d4851a1d" />
    <TestList name="All Loaded Results" id="19431567-8539-422a-85d7-44ee4e166bda" />
  </TestLists>
  <TestEntries>
    <TestEntry testId="fe95c093-8aaa-2a15-9736-2509cc8c0989" executionId="29f3db14-2015-4459-9262-8f46c0ff48a1" testListId="8c84fa94-04c1-424b-9868-57a2d4851a1d" />
    <TestEntry testId="df764f6f-cbb6-8927-bfaa-71ca9ebb390d" executionId="c41d175f-a5c6-4d2c-908d-ed66a19fca85" testListId="8c84fa94-04c1-424b-9868-57a2d4851a1d" />
    <TestEntry testId="363c4455-5870-9ca4-476e-03e67a440aec" executionId="1275d364-8a9e-4269-80bb-ebce4fc72c5e" testListId="8c84fa94-04c1-424b-9868-57a2d4851a1d" />
  </TestEntries>
  <Results>
    <UnitTestResult executionId="29f3db14-2015-4459-9262-8f46c0ff48a1" testId="fe95c093-8aaa-2a15-9736-2509cc8c0989" testName="About" computerName="DevopsUI" duration="00:00:00.1211323" startTime="2017-09-04T09:29:15.0028799+00:00" endTime="2017-09-04T09:29:15.4328663+00:00" testType="13cdc9d9-ddb5-4fa4-a97d-d965ccfc6d4b" outcome="Passed" testListId="8c84fa94-04c1-424b-9868-57a2d4851a1d" relativeResultsDirectory="29f3db14-2015-4459-9262-8f46c0ff48a1">
    </UnitTestResult>
    <UnitTestResult executionId="c41d175f-a5c6-4d2c-908d-ed66a19fca85" testId="df764f6f-cbb6-8927-bfaa-71ca9ebb390d" testName="Contact" computerName="DevopsUI" duration="00:00:00.0064332" startTime="2017-09-04T09:29:15.4478669+00:00" endTime="2017-09-04T09:29:15.4608668+00:00" testType="13cdc9d9-ddb5-4fa4-a97d-d965ccfc6d4b" outcome="Passed" testListId="8c84fa94-04c1-424b-9868-57a2d4851a1d" relativeResultsDirectory="c41d175f-a5c6-4d2c-908d-ed66a19fca85">
    </UnitTestResult>
    <UnitTestResult executionId="1275d364-8a9e-4269-80bb-ebce4fc72c5e" testId="363c4455-5870-9ca4-476e-03e67a440aec" testName="Index" computerName="DevopsUI" duration="00:00:00.0002337" startTime="2017-09-04T09:29:15.4758717+00:00" endTime="2017-09-04T09:29:15.4778641+00:00" testType="13cdc9d9-ddb5-4fa4-a97d-d965ccfc6d4b" outcome="Passed" testListId="8c84fa94-04c1-424b-9868-57a2d4851a1d" relativeResultsDirectory="1275d364-8a9e-4269-80bb-ebce4fc72c5e">
    </UnitTestResult>
  </Results>
</TestRun>